{
  "endpoint": "GET /api/brands",
  "description": "Danh sách brands với filter, search, sort, pagination. Hỗ trợ multiple sort.",
  "request": {
    "params": {
      "search": "string (optional)",
      "active": "boolean (optional) — true/false/bỏ qua=tất cả",
      "deleted": "boolean (optional) — true=đã xóa, false=chưa xóa, không truyền=chưa xóa (mặc định). QUAN TRỌNG: Không truyền param này sẽ CHỈ trả brands chưa xóa (deletedAt IS NULL), không phải tất cả.",
      "page": "number (default: 0)",
      "size": "number (default: 20)",
      "sort": "string (optional, repeatable) — format: field,direction (asc|desc). Ví dụ: sort=name,asc hoặc sort=name,asc&sort=createdAt,desc cho multiple sort. Sortable fields: id, name, slug, active, createdAt, updatedAt"
    }
  },
  "responses": {
    "200_default": {
      "status": 200,
      "body": {
        "data": [
          {
            "id": 41,
            "name": "Test Clear",
            "slug": "test-clear-001",
            "logo": "https://example.com/logo.png",
            "description": "Has description",
            "active": true,
            "createdAt": "2026-05-01T02:47:18.690085",
            "updatedAt": "2026-05-01T02:47:18.690085"
          },
          {
            "id": 40,
            "name": "Test Clear Fields",
            "slug": "test-clear-fields",
            "logo": "https://example.com/logo.png",
            "description": "Has description",
            "active": true,
            "createdAt": "2026-05-01T02:46:16.304018",
            "updatedAt": "2026-05-01T02:46:16.304018"
          },
          {
            "id": 39,
            "name": "Adidas Test",
            "slug": "adidas-test-001",
            "logo": null,
            "description": null,
            "active": false,
            "createdAt": "2026-05-01T02:43:03.315062",
            "updatedAt": "2026-05-01T02:43:03.315062"
          },
          {
            "id": 38,
            "name": "Nike Test",
            "slug": "nike-test-001",
            "logo": "https://example.com/nike-logo.png",
            "description": "Just do it",
            "active": true,
            "createdAt": "2026-05-01T02:42:48.33456",
            "updatedAt": "2026-05-01T02:42:48.33456"
          },
          {
            "id": 28,
            "name": "Nike Clone",
            "slug": "nike-test",
            "logo": null,
            "description": null,
            "active": true,
            "createdAt": "2026-05-01T00:06:02.366605",
            "updatedAt": "2026-05-01T00:06:02.366605"
          },
          {
            "id": 27,
            "name": "Adidas",
            "slug": "adidas-test",
            "logo": null,
            "description": null,
            "active": false,
            "createdAt": "2026-04-30T23:48:52.43678",
            "updatedAt": "2026-04-30T23:51:10.65841"
          },
          {
            "id": 25,
            "name": "Reebok (1777565858)",
            "slug": "reebok-1777565858-24",
            "logo": null,
            "description": null,
            "active": true,
            "createdAt": "2026-04-30T23:17:39.080033",
            "updatedAt": "2026-04-30T23:17:39.080033"
          },
          {
            "id": 24,
            "name": "Asics (1777565858)",
            "slug": "asics-1777565858-23",
            "logo": null,
            "description": null,
            "active": true,
            "createdAt": "2026-04-30T23:17:39.051896",
            "updatedAt": "2026-04-30T23:17:39.051896"
          },
          {
            "id": 23,
            "name": "Skechers (1777565858)",
            "slug": "skechers-1777565858-22",
            "logo": null,
            "description": null,
            "active": true,
            "createdAt": "2026-04-30T23:17:39.027624",
            "updatedAt": "2026-04-30T23:17:39.027624"
          },
          {
            "id": 22,
            "name": "Reebok (1777565858)",
            "slug": "reebok-1777565858-21",
            "logo": null,
            "description": null,
            "active": true,
            "createdAt": "2026-04-30T23:17:39.005524",
            "updatedAt": "2026-04-30T23:17:39.005524"
          },
          {
            "id": 21,
            "name": "Converse (1777565858)",
            "slug": "converse-1777565858-20",
            "logo": null,
            "description": null,
            "active": true,
            "createdAt": "2026-04-30T23:17:38.980867",
            "updatedAt": "2026-04-30T23:17:38.980867"
          },
          {
            "id": 20,
            "name": "Vans (1777565858)",
            "slug": "vans-1777565858-19",
            "logo": null,
            "description": null,
            "active": true,
            "createdAt": "2026-04-30T23:17:38.95715",
            "updatedAt": "2026-04-30T23:17:38.95715"
          },
          {
            "id": 19,
            "name": "Vans (1777565858)",
            "slug": "vans-1777565858-18",
            "logo": null,
            "description": null,
            "active": true,
            "createdAt": "2026-04-30T23:17:38.929593",
            "updatedAt": "2026-04-30T23:17:38.929593"
          },
          {
            "id": 18,
            "name": "Timberland (1777565858)",
            "slug": "timberland-1777565858-17",
            "logo": null,
            "description": null,
            "active": true,
            "createdAt": "2026-04-30T23:17:38.858379",
            "updatedAt": "2026-04-30T23:17:38.858379"
          },
          {
            "id": 17,
            "name": "Vans (1777565858)",
            "slug": "vans-1777565858-16",
            "logo": null,
            "description": null,
            "active": true,
            "createdAt": "2026-04-30T23:17:38.828389",
            "updatedAt": "2026-04-30T23:17:38.828389"
          },
          {
            "id": 16,
            "name": "Puma (1777565858)",
            "slug": "puma-1777565858-15",
            "logo": null,
            "description": null,
            "active": true,
            "createdAt": "2026-04-30T23:17:38.801622",
            "updatedAt": "2026-04-30T23:17:38.801622"
          },
          {
            "id": 15,
            "name": "Asics",
            "slug": "asics-1777565858-14",
            "logo": null,
            "description": null,
            "active": true,
            "createdAt": "2026-04-30T23:17:38.771238",
            "updatedAt": "2026-04-30T23:17:38.771238"
          },
          {
            "id": 14,
            "name": "Fila",
            "slug": "fila-1777565858-13",
            "logo": null,
            "description": null,
            "active": true,
            "createdAt": "2026-04-30T23:17:38.744735",
            "updatedAt": "2026-04-30T23:17:38.744735"
          },
          {
            "id": 13,
            "name": "Fila",
            "slug": "fila-1777565858-12",
            "logo": null,
            "description": null,
            "active": true,
            "createdAt": "2026-04-30T23:17:38.719318",
            "updatedAt": "2026-04-30T23:17:38.719318"
          },
          {
            "id": 12,
            "name": "Asics",
            "slug": "asics-1777565858-11",
            "logo": null,
            "description": null,
            "active": true,
            "createdAt": "2026-04-30T23:17:38.692732",
            "updatedAt": "2026-04-30T23:17:38.692732"
          }
        ],
        "meta": {
          "page": 0,
          "size": 20,
          "totalElements": 30,
          "totalPages": 2,
          "hasNext": true,
          "hasPrevious": false
        },
        "facets": {
          "active": 27,
          "inactive": 3,
          "deleted": 1
        }
      }
    },
    "200_filtered": {
      "status": 200,
      "body": {
        "data": [
          {
            "id": 17,
            "name": "Vans (1777565858)",
            "slug": "vans-1777565858-16",
            "logo": null,
            "description": null,
            "active": true,
            "createdAt": "2026-04-30T23:17:38.828389",
            "updatedAt": "2026-04-30T23:17:38.828389"
          },
          {
            "id": 20,
            "name": "Vans (1777565858)",
            "slug": "vans-1777565858-19",
            "logo": null,
            "description": null,
            "active": true,
            "createdAt": "2026-04-30T23:17:38.95715",
            "updatedAt": "2026-04-30T23:17:38.95715"
          },
          {
            "id": 19,
            "name": "Vans (1777565858)",
            "slug": "vans-1777565858-18",
            "logo": null,
            "description": null,
            "active": true,
            "createdAt": "2026-04-30T23:17:38.929593",
            "updatedAt": "2026-04-30T23:17:38.929593"
          },
          {
            "id": 18,
            "name": "Timberland (1777565858)",
            "slug": "timberland-1777565858-17",
            "logo": null,
            "description": null,
            "active": true,
            "createdAt": "2026-04-30T23:17:38.858379",
            "updatedAt": "2026-04-30T23:17:38.858379"
          },
          {
            "id": 6,
            "name": "Timberland",
            "slug": "timberland-1777565858-5",
            "logo": null,
            "description": null,
            "active": true,
            "createdAt": "2026-04-30T23:17:38.520856",
            "updatedAt": "2026-04-30T23:17:38.520856"
          }
        ],
        "meta": {
          "page": 0,
          "size": 5,
          "totalElements": 27,
          "totalPages": 6,
          "hasNext": true,
          "hasPrevious": false
        },
        "facets": {
          "active": 27,
          "inactive": 3,
          "deleted": 1
        }
      }
    },
    "200_multiple_sort": {
      "status": 200,
      "body": {
        "data": [
          {
            "id": 2,
            "name": "",
            "slug": "timberland-1777565858-1",
            "logo": null,
            "description": null,
            "active": false,
            "createdAt": "2026-04-30T23:17:38.398534",
            "updatedAt": "2026-05-01T04:08:55.981731"
          },
          {
            "id": 27,
            "name": "Adidas",
            "slug": "adidas-test",
            "logo": null,
            "description": null,
            "active": false,
            "createdAt": "2026-04-30T23:48:52.43678",
            "updatedAt": "2026-04-30T23:51:10.65841"
          },
          {
            "id": 3,
            "name": "Adidas",
            "slug": "adidas-1777565858-2",
            "logo": null,
            "description": null,
            "active": true,
            "createdAt": "2026-04-30T23:17:38.426521",
            "updatedAt": "2026-04-30T23:17:38.426521"
          },
          {
            "id": 39,
            "name": "Adidas Test",
            "slug": "adidas-test-001",
            "logo": null,
            "description": null,
            "active": false,
            "createdAt": "2026-05-01T02:43:03.315062",
            "updatedAt": "2026-05-01T02:43:03.315062"
          },
          {
            "id": 15,
            "name": "Asics",
            "slug": "asics-1777565858-14",
            "logo": null,
            "description": null,
            "active": true,
            "createdAt": "2026-04-30T23:17:38.771238",
            "updatedAt": "2026-04-30T23:17:38.771238"
          }
        ],
        "meta": {
          "page": 0,
          "size": 5,
          "totalElements": 30,
          "totalPages": 6,
          "hasNext": true,
          "hasPrevious": false
        },
        "facets": {
          "active": 27,
          "inactive": 3,
          "deleted": 1
        }
      }
    },
    "200_deleted_only": {
      "status": 200,
      "body": {
        "data": [
          {
            "id": 1,
            "name": "Updated Brand Name",
            "slug": "updated-brand-slug",
            "logo": "https://example.com/new-logo.png",
            "description": "Updated description",
            "active": true,
            "createdAt": "2026-04-30T23:17:38.363992",
            "updatedAt": "2026-04-30T23:49:58.676964"
          }
        ],
        "meta": {
          "page": 0,
          "size": 5,
          "totalElements": 1,
          "totalPages": 1,
          "hasNext": false,
          "hasPrevious": false
        },
        "facets": {
          "active": 27,
          "inactive": 3,
          "deleted": 1
        }
      }
    }
  },
  "notes": [
    "Multiple sort: Truyền param 'sort' nhiều lần, ví dụ: ?sort=name,asc&sort=createdAt,desc",
    "Default deleted filter: GET /api/brands (không truyền deleted) → CHỈ trả brands chưa xóa (deletedAt IS NULL). Đây là behavior đã được fix để tránh brands đã xóa lẫn vào list mặc định.",
    "Để lấy brands đã xóa (thùng rác): GET /api/brands?deleted=true",
    "Facets trong response: {active: count, inactive: count, deleted: count} — dùng để hiển thị badge số lượng"
  ]
}